%YAML 1.1
%TAG !u! tag:unity3d.com,2011:
--- !u!1 &1860253912939641854
GameObject:
  m_ObjectHideFlags: 0
  m_CorrespondingSourceObject: {fileID: 0}
  m_PrefabInstance: {fileID: 0}
  m_PrefabAsset: {fileID: 0}
  serializedVersion: 6
  m_Component:
  - component: {fileID: 6656705180415688013}
  - component: {fileID: 3121603770534445350}
  m_Layer: 11
  m_Name: Triple Connector - Mountain
  m_TagString: Untagged
  m_Icon: {fileID: 0}
  m_NavMeshLayer: 0
  m_StaticEditorFlags: 0
  m_IsActive: 1
--- !u!4 &6656705180415688013
Transform:
  m_ObjectHideFlags: 0
  m_CorrespondingSourceObject: {fileID: 0}
  m_PrefabInstance: {fileID: 0}
  m_PrefabAsset: {fileID: 0}
  m_GameObject: {fileID: 1860253912939641854}
  m_LocalRotation: {x: 0, y: 0, z: 0, w: 1}
  m_LocalPosition: {x: 0, y: 0.1, z: 0}
  m_LocalScale: {x: 0.7, y: 0.4, z: 0.7}
  m_Children:
  - {fileID: 8149651579505687172}
  - {fileID: 7854833409546337334}
  m_Father: {fileID: 0}
  m_RootOrder: 0
  m_LocalEulerAnglesHint: {x: 0, y: 0, z: 0}
--- !u!114 &3121603770534445350
MonoBehaviour:
  m_ObjectHideFlags: 0
  m_CorrespondingSourceObject: {fileID: 0}
  m_PrefabInstance: {fileID: 0}
  m_PrefabAsset: {fileID: 0}
  m_GameObject: {fileID: 1860253912939641854}
  m_Enabled: 1
  m_EditorHideFlags: 0
  m_Script: {fileID: 11500000, guid: fb1215fdc86fe6741b746bd8a6fdc27a, type: 3}
  m_Name: 
  m_EditorClassIdentifier: 
  m_GrassColor: {r: 0, g: 0.654902, b: 0.05882353, a: 0}
--- !u!1001 &7854833409546725046
PrefabInstance:
  m_ObjectHideFlags: 0
  serializedVersion: 2
  m_Modification:
    m_TransformParent: {fileID: 6656705180415688013}
    m_Modifications:
    - target: {fileID: 100000, guid: d728ee8b84656a24eb938824ac98b782, type: 3}
      propertyPath: m_Name
      value: cliffBrown_top (3)
      objectReference: {fileID: 0}
    - target: {fileID: 100000, guid: d728ee8b84656a24eb938824ac98b782, type: 3}
      propertyPath: m_IsActive
      value: 1
      objectReference: {fileID: 0}
    - target: {fileID: 100000, guid: d728ee8b84656a24eb938824ac98b782, type: 3}
      propertyPath: m_Layer
      value: 11
      objectReference: {fileID: 0}
    - target: {fileID: 400000, guid: d728ee8b84656a24eb938824ac98b782, type: 3}
      propertyPath: m_LocalPosition.x
      value: -0.25
      objectReference: {fileID: 0}
    - target: {fileID: 400000, guid: d728ee8b84656a24eb938824ac98b782, type: 3}
      propertyPath: m_LocalPosition.y
      value: 0
      objectReference: {fileID: 0}
    - target: {fileID: 400000, guid: d728ee8b84656a24eb938824ac98b782, type: 3}
      propertyPath: m_LocalPosition.z
      value: -0.75
      objectReference: {fileID: 0}
    - target: {fileID: 400000, guid: d728ee8b84656a24eb938824ac98b782, type: 3}
      propertyPath: m_LocalRotation.x
      value: -0
      objectReference: {fileID: 0}
    - target: {fileID: 400000, guid: d728ee8b84656a24eb938824ac98b782, type: 3}
      propertyPath: m_LocalRotation.y
      value: -0.7071068
      objectReference: {fileID: 0}
    - target: {fileID: 400000, guid: d728ee8b84656a24eb938824ac98b782, type: 3}
      propertyPath: m_LocalRotation.z
      value: -0
      objectReference: {fileID: 0}
    - target: {fileID: 400000, guid: d728ee8b84656a24eb938824ac98b782, type: 3}
      propertyPath: m_LocalRotation.w
      value: 0.7071068
      objectReference: {fileID: 0}
    - target: {fileID: 400000, guid: d728ee8b84656a24eb938824ac98b782, type: 3}
      propertyPath: m_RootOrder
      value: 1
      objectReference: {fileID: 0}
    - target: {fileID: 400000, guid: d728ee8b84656a24eb938824ac98b782, type: 3}
      propertyPath: m_LocalEulerAnglesHint.x
      value: 0
      objectReference: {fileID: 0}
    - target: {fileID: 400000, guid: d728ee8b84656a24eb938824ac98b782, type: 3}
      propertyPath: m_LocalEulerAnglesHint.y
      value: -90
      objectReference: {fileID: 0}
    - target: {fileID: 400000, guid: d728ee8b84656a24eb938824ac98b782, type: 3}
      propertyPath: m_LocalEulerAnglesHint.z
      value: 0
      objectReference: {fileID: 0}
    - target: {fileID: 400000, guid: d728ee8b84656a24eb938824ac98b782, type: 3}
      propertyPath: m_LocalScale.x
      value: 0.5
      objectReference: {fileID: 0}
    - target: {fileID: 400000, guid: d728ee8b84656a24eb938824ac98b782, type: 3}
      propertyPath: m_LocalScale.y
      value: 0.455
      objectReference: {fileID: 0}
    - target: {fileID: 400000, guid: d728ee8b84656a24eb938824ac98b782, type: 3}
      propertyPath: m_LocalScale.z
      value: 0.4
      objectReference: {fileID: 0}
    m_RemovedComponents: []
  m_SourcePrefab: {fileID: 100100000, guid: d728ee8b84656a24eb938824ac98b782, type: 3}
--- !u!4 &7854833409546337334 stripped
Transform:
  m_CorrespondingSourceObject: {fileID: 400000, guid: d728ee8b84656a24eb938824ac98b782,
    type: 3}
  m_PrefabInstance: {fileID: 7854833409546725046}
  m_PrefabAsset: {fileID: 0}
--- !u!1001 &8149651579505811460
PrefabInstance:
  m_ObjectHideFlags: 0
  serializedVersion: 2
  m_Modification:
    m_TransformParent: {fileID: 6656705180415688013}
    m_Modifications:
    - target: {fileID: 100000, guid: 887b6d1e6adfe18428020b5325466ad9, type: 3}
      propertyPath: m_Name
      value: cliffBrown_block
      objectReference: {fileID: 0}
    - target: {fileID: 100000, guid: 887b6d1e6adfe18428020b5325466ad9, type: 3}
      propertyPath: m_Layer
      value: 11
      objectReference: {fileID: 0}
    - target: {fileID: 400000, guid: 887b6d1e6adfe18428020b5325466ad9, type: 3}
      propertyPath: m_LocalPosition.x
      value: -0.25
      objectReference: {fileID: 0}
    - target: {fileID: 400000, guid: 887b6d1e6adfe18428020b5325466ad9, type: 3}
      propertyPath: m_LocalPosition.y
      value: 0
      objectReference: {fileID: 0}
    - target: {fileID: 400000, guid: 887b6d1e6adfe18428020b5325466ad9, type: 3}
      propertyPath: m_LocalPosition.z
      value: -0.75
      objectReference: {fileID: 0}
    - target: {fileID: 400000, guid: 887b6d1e6adfe18428020b5325466ad9, type: 3}
      propertyPath: m_LocalRotation.x
      value: -0
      objectReference: {fileID: 0}
    - target: {fileID: 400000, guid: 887b6d1e6adfe18428020b5325466ad9, type: 3}
      propertyPath: m_LocalRotation.y
      value: -0
      objectReference: {fileID: 0}
    - target: {fileID: 400000, guid: 887b6d1e6adfe18428020b5325466ad9, type: 3}
      propertyPath: m_LocalRotation.z
      value: -0
      objectReference: {fileID: 0}
    - target: {fileID: 400000, guid: 887b6d1e6adfe18428020b5325466ad9, type: 3}
      propertyPath: m_LocalRotation.w
      value: 1
      objectReference: {fileID: 0}
    - target: {fileID: 400000, guid: 887b6d1e6adfe18428020b5325466ad9, type: 3}
      propertyPath: m_RootOrder
      value: 0
      objectReference: {fileID: 0}
    - target: {fileID: 400000, guid: 887b6d1e6adfe18428020b5325466ad9, type: 3}
      propertyPath: m_LocalEulerAnglesHint.x
      value: 0
      objectReference: {fileID: 0}
    - target: {fileID: 400000, guid: 887b6d1e6adfe18428020b5325466ad9, type: 3}
      propertyPath: m_LocalEulerAnglesHint.y
      value: 0
      objectReference: {fileID: 0}
    - target: {fileID: 400000, guid: 887b6d1e6adfe18428020b5325466ad9, type: 3}
      propertyPath: m_LocalEulerAnglesHint.z
      value: 0
      objectReference: {fileID: 0}
    - target: {fileID: 400000, guid: 887b6d1e6adfe18428020b5325466ad9, type: 3}
      propertyPath: m_LocalScale.x
      value: 1
      objectReference: {fileID: 0}
    - target: {fileID: 400000, guid: 887b6d1e6adfe18428020b5325466ad9, type: 3}
      propertyPath: m_LocalScale.z
      value: 1.5
      objectReference: {fileID: 0}
    m_RemovedComponents: []
  m_SourcePrefab: {fileID: 100100000, guid: 887b6d1e6adfe18428020b5325466ad9, type: 3}
--- !u!4 &8149651579505687172 stripped
Transform:
  m_CorrespondingSourceObject: {fileID: 400000, guid: 887b6d1e6adfe18428020b5325466ad9,
    type: 3}
  m_PrefabInstance: {fileID: 8149651579505811460}
  m_PrefabAsset: {fileID: 0}
